…
### Bootstrapping

``` r
# Set a random seed value so we can obtain the same "random" results
set.seed(631)

# Generate the 2000 bootstrap samples
boot_samps <- sim_dat %>% 
  bootstraps(times = 2000)

boot_samps
```

    ## # Bootstrap sampling 
    ## # A tibble: 2,000 × 2
    ##    splits          id           
    ##    <list>          <chr>        
    ##  1 <split [20/8]>  Bootstrap0001
    ##  2 <split [20/6]>  Bootstrap0002
    ##  3 <split [20/6]>  Bootstrap0003
    ##  4 <split [20/6]>  Bootstrap0004
    ##  5 <split [20/10]> Bootstrap0005
    ##  6 <split [20/10]> Bootstrap0006
    ##  7 <split [20/7]>  Bootstrap0007
    ##  8 <split [20/6]>  Bootstrap0008
    ##  9 <split [20/8]>  Bootstrap0009
    ## 10 <split [20/6]>  Bootstrap0010
    ## # … with 1,990 more rows
…
# Fit the model to each split and store the information
# Also, obtain the tidy model information
boot_models <- boot_samps %>% 
  mutate(
    model = map(splits, fit_mlr_boots),
    coef_info = map(model, tidy)
    )

boots_coefs <- boot_models %>% 
  unnest(coef_info)

boots_coefs
```

    ## # A tibble: 8,000 × 8
    ##    splits         id            model  term    estim…¹ std.e…² statis…³  p.value
    ##    <list>         <chr>         <list> <chr>     <dbl>   <dbl>    <dbl>    <dbl>
    ##  1 <split [20/8]> Bootstrap0001 <lm>   (Inter…  2.87   0.694     4.13   7.88e- 4
    ##  2 <split [20/8]> Bootstrap0001 <lm>   x1      -0.0503 0.143    -0.350  7.31e- 1
    ##  3 <split [20/8]> Bootstrap0001 <lm>   x2      -0.507  0.0107  -47.5    1.19e-18
    ##  4 <split [20/8]> Bootstrap0001 <lm>   x3Yes    0.0473 0.709     0.0666 9.48e- 1
    ##  5 <split [20/6]> Bootstrap0002 <lm>   (Inter…  2.18   0.635     3.43   3.43e- 3
    ##  6 <split [20/6]> Bootstrap0002 <lm>   x1       0.168  0.143     1.17   2.57e- 1
    ##  7 <split [20/6]> Bootstrap0002 <lm>   x2      -0.501  0.00907 -55.2    1.08e-19
    ##  8 <split [20/6]> Bootstrap0002 <lm>   x3Yes   -0.198  0.623    -0.319  7.54e- 1
    ##  9 <split [20/6]> Bootstrap0003 <lm>   (Inter…  1.40   0.826     1.70   1.08e- 1
    ## 10 <split [20/6]> Bootstrap0003 <lm>   x1       0.246  0.119     2.06   5.60e- 2
    ## # … with 7,990 more rows, and abbreviated variable names ¹​estimate, ²​std.error,
    ## #   ³​statistic
…
